{
    "console": [],
    "result": {
        "passages": [
            {
                "Name": "Opening",
                "Pid": "1",
                "Tags": "",
                "Tokens": [
                    {
                        "text": "Wealth Management - Szenario 2",
                        "type": "text"
                    },
                    {
                        "text": "\n",
                        "type": "br"
                    },
                    {
                        "text": "\"WEISS ICH SCHON\"",
                        "type": "text"
                    },
                    {
                        "text": "\n",
                        "type": "br"
                    },
                    {
                        "text": "\n",
                        "type": "br"
                    },
                    {
                        "innerText": "link-goto:\"Weiter0\",\"Szene 1\"",
                        "name": "linkgoto",
                        "text": "(link-goto:\"Weiter0\",\"Szene 1\")",
                        "tokens": [
                            {
                                "text": "link-goto:",
                                "type": "macroName"
                            },
                            {
                                "innerText": "Weiter0",
                                "text": "\"Weiter0\"",
                                "type": "string"
                            },
                            {
                                "text": ",",
                                "type": "comma"
                            },
                            {
                                "innerText": "Szene 1",
                                "text": "\"Szene 1\"",
                                "type": "string"
                            }
                        ],
                        "type": "macro"
                    },
                    {
                        "text": "\n",
                        "type": "br"
                    },
                    {
                        "text": "\n",
                        "type": "br"
                    }
                ]
            },
            {
                "Name": "Szene 1",
                "Pid": "2",
                "Tags": "",
                "Tokens": [
                    {
                        "text": "Szene 1 - Pausenraum",
                        "type": "text"
                    },
                    {
                        "text": "\n",
                        "type": "br"
                    },
                    {
                        "text": "RONJA und ISA sitzen im Pausenraum ihres Arbeitgebers und halten jeweils eine Tasse Kaffee in ihren Händen. Im Pausenraum stehen verteilt Stehtische. Während Ronja und Isa ein Gespräch führen befinden sich auch noch andere Mitarbeiter im Pausenraum, nehmen jedoch nicht am Gespräch zwischen Ronja und Isa teil. Die beiden stehen allein an einem Stehtisch. Der Pausenraum besitzt eine kleine Einbauküche in der Farbe Rot. Der Boden ist mit einem Teppichboden ausgelegt und an der Decke sind runde LED-Spot-Lampen angebracht.",
                        "type": "text"
                    },
                    {
                        "text": "\n",
                        "type": "br"
                    },
                    {
                        "innerText": "link-goto:\"Weiter1\",\"Ronja1\"",
                        "name": "linkgoto",
                        "text": "(link-goto:\"Weiter1\",\"Ronja1\")",
                        "tokens": [
                            {
                                "text": "link-goto:",
                                "type": "macroName"
                            },
                            {
                                "innerText": "Weiter1",
                                "text": "\"Weiter1\"",
                                "type": "string"
                            },
                            {
                                "text": ",",
                                "type": "comma"
                            },
                            {
                                "innerText": "Ronja1",
                                "text": "\"Ronja1\"",
                                "type": "string"
                            }
                        ],
                        "type": "macro"
                    }
                ]
            },
            {
                "Name": "Ronja1",
                "Pid": "3",
                "Tags": "",
                "Tokens": [
                    {
                        "text": "\n",
                        "type": "br"
                    },
                    {
                        "text": "1 RONJA (seufzend)",
                        "type": "text"
                    },
                    {
                        "text": "\n",
                        "type": "br"
                    },
                    {
                        "text": "\n",
                        "type": "br"
                    },
                    {
                        "text": "Heute muss ich noch meinen Projektvorschlag für das neue Hochhaus am Museum für Gestaltung in Zürich einreichen. Ich weiss wirklich nicht wie ich das schaffen sollte. Letzte Woche kam ein Änderungswunsch des Bauherrn ins Haus. Er wünscht sich tatsächlich, dass jede Wohnung ein eigenes Drohnenpostfach erhält, welches durch eine Öffnung mit der Küche verbunden ist. Aber nicht alle Wohneinheiten haben die Küche an einer Aussenwand.",
                        "type": "text"
                    },
                    {
                        "text": "\n",
                        "type": "br"
                    },
                    {
                        "text": " ",
                        "type": "text"
                    },
                    {
                        "innerText": "link-goto:\"Weiter2\",\"Isa1\"",
                        "name": "linkgoto",
                        "text": "(link-goto:\"Weiter2\",\"Isa1\")",
                        "tokens": [
                            {
                                "text": "link-goto:",
                                "type": "macroName"
                            },
                            {
                                "innerText": "Weiter2",
                                "text": "\"Weiter2\"",
                                "type": "string"
                            },
                            {
                                "text": ",",
                                "type": "comma"
                            },
                            {
                                "innerText": "Isa1",
                                "text": "\"Isa1\"",
                                "type": "string"
                            }
                        ],
                        "type": "macro"
                    }
                ]
            },
            {
                "Name": "Isa1",
                "Pid": "4",
                "Tags": "",
                "Tokens": [
                    {
                        "text": "2 ISA (erstaunter Gesichtsausdruck)",
                        "type": "text"
                    },
                    {
                        "text": "\n",
                        "type": "br"
                    },
                    {
                        "text": "\n",
                        "type": "br"
                    },
                    {
                        "text": "Schon wieder eine Änderung? Hattet ihr nicht gerade letzte Woche eine Änderung bezüglich der Gesichtserkennung in den Fahrstühlen?",
                        "type": "text"
                    },
                    {
                        "text": "\n",
                        "type": "br"
                    },
                    {
                        "innerText": "link-goto:\"Weiter3\",\"Ronja2\"",
                        "name": "linkgoto",
                        "text": "(link-goto:\"Weiter3\",\"Ronja2\")",
                        "tokens": [
                            {
                                "text": "link-goto:",
                                "type": "macroName"
                            },
                            {
                                "innerText": "Weiter3",
                                "text": "\"Weiter3\"",
                                "type": "string"
                            },
                            {
                                "text": ",",
                                "type": "comma"
                            },
                            {
                                "innerText": "Ronja2",
                                "text": "\"Ronja2\"",
                                "type": "string"
                            }
                        ],
                        "type": "macro"
                    }
                ]
            },
            {
                "Name": "Ronja2",
                "Pid": "5",
                "Tags": "",
                "Tokens": [
                    {
                        "text": "3 RONJA",
                        "type": "text"
                    },
                    {
                        "text": "\n",
                        "type": "br"
                    },
                    {
                        "text": "\n",
                        "type": "br"
                    },
                    {
                        "text": "Ja genau und jetzt auch noch diese neue Änderung. Naja, lassen wir mal die Arbeit, wir haben ja schliesslich Pause.",
                        "type": "text"
                    },
                    {
                        "text": "\n",
                        "type": "br"
                    },
                    {
                        "text": "\n",
                        "type": "br"
                    },
                    {
                        "text": "Ronja holt ihr Smartphone aus der Hosentasche und entsperrt es durch die einbaute Gesichtserkennung. Während sie auf ihrem Smartphone herumtippt führt sie das Gespräch mit Isa weiter.",
                        "type": "text"
                    },
                    {
                        "text": "\n",
                        "type": "br"
                    },
                    {
                        "text": "\n",
                        "type": "br"
                    },
                    {
                        "text": "Man, jetzt hat mein Robo-Advisor wieder einen gute Investitionsmöglichkeit verpasst.",
                        "type": "text"
                    },
                    {
                        "text": "\n",
                        "type": "br"
                    },
                    {
                        "text": "\n",
                        "type": "br"
                    },
                    {
                        "innerText": "link-goto:\"Weiter\",\"Isa2\"",
                        "name": "linkgoto",
                        "text": "(link-goto:\"Weiter\",\"Isa2\")",
                        "tokens": [
                            {
                                "text": "link-goto:",
                                "type": "macroName"
                            },
                            {
                                "innerText": "Weiter",
                                "text": "\"Weiter\"",
                                "type": "string"
                            },
                            {
                                "text": ",",
                                "type": "comma"
                            },
                            {
                                "innerText": "Isa2",
                                "text": "\"Isa2\"",
                                "type": "string"
                            }
                        ],
                        "type": "macro"
                    }
                ]
            },
            {
                "Name": "Isa2",
                "Pid": "6",
                "Tags": "",
                "Tokens": [
                    {
                        "align": "center",
                        "text": "=><=\n",
                        "type": "align"
                    },
                    {
                        "text": "ISA",
                        "type": "text"
                    },
                    {
                        "text": "\n",
                        "type": "br"
                    },
                    {
                        "align": "left",
                        "text": "<==\n",
                        "type": "align"
                    },
                    {
                        "text": "\n",
                        "type": "br"
                    },
                    {
                        "text": "Wieso meinst du wieder?",
                        "type": "text"
                    },
                    {
                        "text": "\n",
                        "type": "br"
                    },
                    {
                        "text": "\n",
                        "type": "br"
                    },
                    {
                        "innerText": "link-goto:\"Weiter\",\"Ronja3\"",
                        "name": "linkgoto",
                        "text": "(link-goto:\"Weiter\",\"Ronja3\")",
                        "tokens": [
                            {
                                "text": "link-goto:",
                                "type": "macroName"
                            },
                            {
                                "innerText": "Weiter",
                                "text": "\"Weiter\"",
                                "type": "string"
                            },
                            {
                                "text": ",",
                                "type": "comma"
                            },
                            {
                                "innerText": "Ronja3",
                                "text": "\"Ronja3\"",
                                "type": "string"
                            }
                        ],
                        "type": "macro"
                    }
                ]
            },
            {
                "Name": "Isa3",
                "Pid": "7",
                "Tags": "",
                "Tokens": [
                    {
                        "align": "center",
                        "text": "=><=\n",
                        "type": "align"
                    },
                    {
                        "text": "Isa",
                        "type": "text"
                    },
                    {
                        "text": "\n",
                        "type": "br"
                    },
                    {
                        "align": "left",
                        "text": "<==\n",
                        "type": "align"
                    },
                    {
                        "text": "\n",
                        "type": "br"
                    },
                    {
                        "text": "Komisch, Tom hat sich bei seinem Robo-Advisor nie darüber aufgeregt, dass dieser zu langsam sei.",
                        "type": "text"
                    },
                    {
                        "text": "\n",
                        "type": "br"
                    },
                    {
                        "text": "\n",
                        "type": "br"
                    },
                    {
                        "innerText": "link-goto:\"Weiter\",\"Ronja4\"",
                        "name": "linkgoto",
                        "text": "(link-goto:\"Weiter\",\"Ronja4\")",
                        "tokens": [
                            {
                                "text": "link-goto:",
                                "type": "macroName"
                            },
                            {
                                "innerText": "Weiter",
                                "text": "\"Weiter\"",
                                "type": "string"
                            },
                            {
                                "text": ",",
                                "type": "comma"
                            },
                            {
                                "innerText": "Ronja4",
                                "text": "\"Ronja4\"",
                                "type": "string"
                            }
                        ],
                        "type": "macro"
                    }
                ]
            },
            {
                "Name": "Isa4",
                "Pid": "8",
                "Tags": "",
                "Tokens": [
                    {
                        "align": "center",
                        "text": "=><=\n",
                        "type": "align"
                    },
                    {
                        "text": "Isa",
                        "type": "text"
                    },
                    {
                        "text": "\n",
                        "type": "br"
                    },
                    {
                        "align": "left",
                        "text": "<==\n",
                        "type": "align"
                    },
                    {
                        "text": "\n",
                        "type": "br"
                    },
                    {
                        "text": "Wirklich seltsam, lass mich kurz mit Tom telefonieren, er passt gerade auf die Kinder auf.",
                        "type": "text"
                    },
                    {
                        "text": "\n",
                        "type": "br"
                    },
                    {
                        "text": "\n",
                        "type": "br"
                    },
                    {
                        "innerText": "link-goto:\"Weiter\",\"Ronja5\"",
                        "name": "linkgoto",
                        "text": "(link-goto:\"Weiter\",\"Ronja5\")",
                        "tokens": [
                            {
                                "text": "link-goto:",
                                "type": "macroName"
                            },
                            {
                                "innerText": "Weiter",
                                "text": "\"Weiter\"",
                                "type": "string"
                            },
                            {
                                "text": ",",
                                "type": "comma"
                            },
                            {
                                "innerText": "Ronja5",
                                "text": "\"Ronja5\"",
                                "type": "string"
                            }
                        ],
                        "type": "macro"
                    }
                ]
            },
            {
                "Name": "Isa5",
                "Pid": "9",
                "Tags": "",
                "Tokens": [
                    {
                        "align": "center",
                        "text": "=><=\n",
                        "type": "align"
                    },
                    {
                        "text": "Isa holt ihr Smartphone hervor und ruft Tom an. Während es klingelt, entfernt sie sich vom Tisch und telefoniert einige Meter entfernt von Ronja mit ihrem Mann. Ronja steht während dieser Zeit noch am Stehtisch und trinkt ihren Kaffee. Nach einigen Sekunden hängt Isa ab und läuft wieder zum Tisch.",
                        "type": "text"
                    },
                    {
                        "text": "\n",
                        "type": "br"
                    },
                    {
                        "text": "\n",
                        "type": "br"
                    },
                    {
                        "text": "ISA (lächelt)",
                        "type": "text"
                    },
                    {
                        "text": "\n",
                        "type": "br"
                    },
                    {
                        "align": "left",
                        "text": "<==\n",
                        "type": "align"
                    },
                    {
                        "text": "\n",
                        "type": "br"
                    },
                    {
                        "text": "Ich habe auch etwas Neues gelernt. Es gibt da eine Community, welche wichtige Informationen über Marktdaten freigibt und diese deinem Robo-Advisor freigeben kann. Damit soll eine fast vollkommende Markttransparenz erreicht werden. Darum haben bereits alle vor deinem Robo-Advisor von dieser Gesetzesänderung gewusst. Woher holt dein Robo-Advisor denn die Informationen?",
                        "type": "text"
                    },
                    {
                        "text": "\n",
                        "type": "br"
                    },
                    {
                        "text": "\n",
                        "type": "br"
                    },
                    {
                        "innerText": "link-goto:\"Weiter\",\"Ronja6\"",
                        "name": "linkgoto",
                        "text": "(link-goto:\"Weiter\",\"Ronja6\")",
                        "tokens": [
                            {
                                "text": "link-goto:",
                                "type": "macroName"
                            },
                            {
                                "innerText": "Weiter",
                                "text": "\"Weiter\"",
                                "type": "string"
                            },
                            {
                                "text": ",",
                                "type": "comma"
                            },
                            {
                                "innerText": "Ronja6",
                                "text": "\"Ronja6\"",
                                "type": "string"
                            }
                        ],
                        "type": "macro"
                    },
                    {
                        "text": " ",
                        "type": "text"
                    }
                ]
            },
            {
                "Name": "Isa6",
                "Pid": "10",
                "Tags": "",
                "Tokens": [
                    {
                        "align": "center",
                        "text": "=><=\n",
                        "type": "align"
                    },
                    {
                        "text": "Isa",
                        "type": "text"
                    },
                    {
                        "text": "\n",
                        "type": "br"
                    },
                    {
                        "align": "left",
                        "text": "<==\n",
                        "type": "align"
                    },
                    {
                        "text": "\n",
                        "type": "br"
                    },
                    {
                        "text": "Hmm, dann sind die Medienhäuser wohl auch zu spät. Klar, hat er mir mitgeteilt. Da du ja auch bei DirectStoxs angemeldet bist kannst du ganz einfach deinen Robo-Advisor darum bitten dich mit der API der Community-Plattform zu verbinden. Ich werde dir, wenn ich wieder am Rechner sitze die API per Mail zukommen lassen.",
                        "type": "text"
                    },
                    {
                        "text": "\n",
                        "type": "br"
                    },
                    {
                        "text": "\n",
                        "type": "br"
                    },
                    {
                        "innerText": "link-goto:\"Weiter\",\"Ronja7\"",
                        "name": "linkgoto",
                        "text": "(link-goto:\"Weiter\",\"Ronja7\")",
                        "tokens": [
                            {
                                "text": "link-goto:",
                                "type": "macroName"
                            },
                            {
                                "innerText": "Weiter",
                                "text": "\"Weiter\"",
                                "type": "string"
                            },
                            {
                                "text": ",",
                                "type": "comma"
                            },
                            {
                                "innerText": "Ronja7",
                                "text": "\"Ronja7\"",
                                "type": "string"
                            }
                        ],
                        "type": "macro"
                    },
                    {
                        "text": " ",
                        "type": "text"
                    }
                ]
            },
            {
                "Name": "Isa7",
                "Pid": "11",
                "Tags": "",
                "Tokens": [
                    {
                        "align": "center",
                        "text": "=><=\n",
                        "type": "align"
                    },
                    {
                        "text": "Isa schaut auf ihrer Smart-Watch nach der Uhrzeit",
                        "type": "text"
                    },
                    {
                        "text": "\n",
                        "type": "br"
                    },
                    {
                        "align": "left",
                        "text": "<==\n",
                        "type": "align"
                    },
                    {
                        "text": "\n",
                        "type": "br"
                    },
                    {
                        "text": "Ja mach das und lass uns am besten gleich wieder zur Arbeit gehen, unsere 15 Minuten sind schon längst um.",
                        "type": "text"
                    },
                    {
                        "text": "\n",
                        "type": "br"
                    },
                    {
                        "text": "\n",
                        "type": "br"
                    },
                    {
                        "innerText": "link-goto:\"Weiter2 \",\"Szene 2\"",
                        "name": "linkgoto",
                        "text": "(link-goto:\"Weiter2 \",\"Szene 2\")",
                        "tokens": [
                            {
                                "text": "link-goto:",
                                "type": "macroName"
                            },
                            {
                                "innerText": "Weiter2 ",
                                "text": "\"Weiter2 \"",
                                "type": "string"
                            },
                            {
                                "text": ",",
                                "type": "comma"
                            },
                            {
                                "innerText": "Szene 2",
                                "text": "\"Szene 2\"",
                                "type": "string"
                            }
                        ],
                        "type": "macro"
                    },
                    {
                        "text": " ",
                        "type": "text"
                    }
                ]
            },
            {
                "Name": "Ronja3",
                "Pid": "12",
                "Tags": "",
                "Tokens": [
                    {
                        "align": "center",
                        "text": "=><=\n",
                        "type": "align"
                    },
                    {
                        "text": "RONJA",
                        "type": "text"
                    },
                    {
                        "text": "\n",
                        "type": "br"
                    },
                    {
                        "align": "left",
                        "text": "<==\n",
                        "type": "align"
                    },
                    {
                        "text": "\n",
                        "type": "br"
                    },
                    {
                        "text": "Ist mir letzte Woche schon passiert. Ehrlichgesagt bin ich wirklich zufrieden mit meinem Robo-Advisor, aber irgendwie reagiert er immer zu spät!",
                        "type": "text"
                    },
                    {
                        "text": "\n",
                        "type": "br"
                    },
                    {
                        "text": "\n",
                        "type": "br"
                    },
                    {
                        "innerText": "link-goto:\"Weiter\",\"Isa3\"",
                        "name": "linkgoto",
                        "text": "(link-goto:\"Weiter\",\"Isa3\")",
                        "tokens": [
                            {
                                "text": "link-goto:",
                                "type": "macroName"
                            },
                            {
                                "innerText": "Weiter",
                                "text": "\"Weiter\"",
                                "type": "string"
                            },
                            {
                                "text": ",",
                                "type": "comma"
                            },
                            {
                                "innerText": "Isa3",
                                "text": "\"Isa3\"",
                                "type": "string"
                            }
                        ],
                        "type": "macro"
                    }
                ]
            },
            {
                "Name": "Ronja4",
                "Pid": "13",
                "Tags": "",
                "Tokens": [
                    {
                        "align": "center",
                        "text": "=><=\n",
                        "type": "align"
                    },
                    {
                        "text": "Ronja",
                        "type": "text"
                    },
                    {
                        "text": "\n",
                        "type": "br"
                    },
                    {
                        "align": "left",
                        "text": "<==\n",
                        "type": "align"
                    },
                    {
                        "text": "\n",
                        "type": "br"
                    },
                    {
                        "text": "Irgendetwas mache ich falsch, mir entgehen immer wieder vielversprechende Chancen. Zum Beispiel diese von heute. Gestern Abend schon wurde vom europäischen Parlament verabschiedet, dass Drohnen in Zukunft auch über 200 Kilometer autonom fliegen dürfen, bisher waren ja nur 120 Kilometer erlaubt. Aber trotzdem ist der Preis eines Drohnenherstellers schon zwei Stunden vor dem Entscheid in die Höhe geschossen.",
                        "type": "text"
                    },
                    {
                        "text": "\n",
                        "type": "br"
                    },
                    {
                        "text": "\n",
                        "type": "br"
                    },
                    {
                        "innerText": "link-goto:\"Weiter\",\"Isa4\"",
                        "name": "linkgoto",
                        "text": "(link-goto:\"Weiter\",\"Isa4\")",
                        "tokens": [
                            {
                                "text": "link-goto:",
                                "type": "macroName"
                            },
                            {
                                "innerText": "Weiter",
                                "text": "\"Weiter\"",
                                "type": "string"
                            },
                            {
                                "text": ",",
                                "type": "comma"
                            },
                            {
                                "innerText": "Isa4",
                                "text": "\"Isa4\"",
                                "type": "string"
                            }
                        ],
                        "type": "macro"
                    }
                ]
            },
            {
                "Name": "Ronja5",
                "Pid": "14",
                "Tags": "",
                "Tokens": [
                    {
                        "align": "center",
                        "text": "=><=\n",
                        "type": "align"
                    },
                    {
                        "text": "Ronja",
                        "type": "text"
                    },
                    {
                        "text": "\n",
                        "type": "br"
                    },
                    {
                        "align": "left",
                        "text": "<==\n",
                        "type": "align"
                    },
                    {
                        "text": "\n",
                        "type": "br"
                    },
                    {
                        "text": "Super ich danke dir",
                        "type": "text"
                    },
                    {
                        "text": "\n",
                        "type": "br"
                    },
                    {
                        "text": "\n",
                        "type": "br"
                    },
                    {
                        "innerText": "link-goto:\"Weiter\",\"Isa5\"",
                        "name": "linkgoto",
                        "text": "(link-goto:\"Weiter\",\"Isa5\")",
                        "tokens": [
                            {
                                "text": "link-goto:",
                                "type": "macroName"
                            },
                            {
                                "innerText": "Weiter",
                                "text": "\"Weiter\"",
                                "type": "string"
                            },
                            {
                                "text": ",",
                                "type": "comma"
                            },
                            {
                                "innerText": "Isa5",
                                "text": "\"Isa5\"",
                                "type": "string"
                            }
                        ],
                        "type": "macro"
                    },
                    {
                        "text": " ",
                        "type": "text"
                    }
                ]
            },
            {
                "Name": "Ronja6",
                "Pid": "15",
                "Tags": "",
                "Tokens": [
                    {
                        "align": "center",
                        "text": "=><=\n",
                        "type": "align"
                    },
                    {
                        "text": "Ronja",
                        "type": "text"
                    },
                    {
                        "text": "\n",
                        "type": "br"
                    },
                    {
                        "align": "left",
                        "text": "<==\n",
                        "type": "align"
                    },
                    {
                        "text": "\n",
                        "type": "br"
                    },
                    {
                        "text": "Soweit ich weiss analysiert mein Robo-Advisor alle gängigen Medienhäuser nach neuen Nachrichten. Hat er denn auch gesagt wie ich mich dieser Community anschliessen kann.",
                        "type": "text"
                    },
                    {
                        "text": "\n",
                        "type": "br"
                    },
                    {
                        "text": "\n",
                        "type": "br"
                    },
                    {
                        "innerText": "link-goto:\"Weiter\",\"Isa6\"",
                        "name": "linkgoto",
                        "text": "(link-goto:\"Weiter\",\"Isa6\")",
                        "tokens": [
                            {
                                "text": "link-goto:",
                                "type": "macroName"
                            },
                            {
                                "innerText": "Weiter",
                                "text": "\"Weiter\"",
                                "type": "string"
                            },
                            {
                                "text": ",",
                                "type": "comma"
                            },
                            {
                                "innerText": "Isa6",
                                "text": "\"Isa6\"",
                                "type": "string"
                            }
                        ],
                        "type": "macro"
                    },
                    {
                        "text": " ",
                        "type": "text"
                    }
                ]
            },
            {
                "Name": "Ronja7",
                "Pid": "16",
                "Tags": "",
                "Tokens": [
                    {
                        "align": "center",
                        "text": "=><=\n",
                        "type": "align"
                    },
                    {
                        "text": "Ronja",
                        "type": "text"
                    },
                    {
                        "text": "\n",
                        "type": "br"
                    },
                    {
                        "align": "left",
                        "text": "<==\n",
                        "type": "align"
                    },
                    {
                        "text": "\n",
                        "type": "br"
                    },
                    {
                        "text": "Danke dir, dann bitte ich meinen Robo-Advisor heute Abend mich da hinzuzufügen.",
                        "type": "text"
                    },
                    {
                        "text": "\n",
                        "type": "br"
                    },
                    {
                        "text": "\n",
                        "type": "br"
                    },
                    {
                        "innerText": "link-goto:\"Weiter\",\"Isa7\"",
                        "name": "linkgoto",
                        "text": "(link-goto:\"Weiter\",\"Isa7\")",
                        "tokens": [
                            {
                                "text": "link-goto:",
                                "type": "macroName"
                            },
                            {
                                "innerText": "Weiter",
                                "text": "\"Weiter\"",
                                "type": "string"
                            },
                            {
                                "text": ",",
                                "type": "comma"
                            },
                            {
                                "innerText": "Isa7",
                                "text": "\"Isa7\"",
                                "type": "string"
                            }
                        ],
                        "type": "macro"
                    },
                    {
                        "text": " ",
                        "type": "text"
                    }
                ]
            },
            {
                "Name": "Szene 2",
                "Pid": "17",
                "Tags": "",
                "Tokens": [
                    {
                        "text": "Double-click this passage to edit it.",
                        "type": "text"
                    }
                ]
            }
        ],
        "startPid": "1"
    }
}